<svg width="1075" height="622" viewBox="0 0 1075 622" fill="none" xmlns="http://www.w3.org/2000/svg">
<g filter="url(#filter0_d)">
<path d="M4.77829 595.43C42.2354 607.134 81.2548 613.09 120.5 613.09H537.516H954.533C993.778 613.09 1032.8 607.134 1070.25 595.43H537.516H4.77829Z" fill="url(#paint0_linear)"/>
<path d="M4.77829 589.097V595.43H434.255C438.49 595.43 442.688 596.033 446.81 597.013C447.299 597.126 447.789 597.239 448.278 597.333V589.097H4.77829Z" fill="url(#paint1_linear)"/>
<path d="M1070.2 589.097V595.43H640.702C636.467 595.43 632.27 596.033 628.148 597.013C627.658 597.126 627.169 597.239 626.679 597.333V589.097H1070.2Z" fill="url(#paint2_linear)"/>
<path d="M626.698 589.097V597.333C624.873 597.672 623.009 597.842 621.146 597.842H453.85C451.986 597.842 450.123 597.672 448.297 597.333V589.097H626.698Z" fill="url(#paint3_linear)"/>
<path d="M4.77829 588.173V594.506H434.255C438.49 594.506 442.688 595.109 446.81 596.09C447.299 596.203 447.789 596.316 448.278 596.41V588.173H4.77829Z" fill="url(#paint4_linear)"/>
<path d="M946.646 4.58496H128.5C113.837 4.58496 101.96 16.4969 101.96 31.1605V586.76H105.762V27.3533C105.762 26.1847 105.856 25.0161 106.025 23.9041C106.082 23.5271 106.138 23.1502 106.233 22.7921C106.308 22.4339 106.383 22.057 106.477 21.6989C106.571 21.3408 106.665 20.9827 106.778 20.6245C107.719 17.59 109.282 14.8382 111.296 12.5011C111.54 12.2184 111.766 11.9545 112.03 11.6906C112.143 11.5587 112.275 11.4268 112.406 11.2948C113.573 10.1451 114.853 9.10846 116.227 8.22261C116.698 7.92104 117.15 7.63833 117.639 7.39331C118.11 7.12943 118.618 6.88441 119.107 6.65824C119.446 6.50745 119.785 6.37551 120.124 6.22473C122.702 5.20694 125.507 4.64151 128.443 4.64151H946.59C950.505 4.64151 954.175 5.64045 957.394 7.39331C957.864 7.65718 958.354 7.93989 958.805 8.22261C959.408 8.61842 960.01 9.03308 960.575 9.48543C960.857 9.7116 961.139 9.93777 961.403 10.1828C961.817 10.5409 962.212 10.9179 962.589 11.2948C962.72 11.4268 962.852 11.5587 962.965 11.6906C963.21 11.9545 963.455 12.2184 963.699 12.5011C967.144 16.478 969.233 21.68 969.233 27.3721V586.76H973.073V29.4831C972.264 15.5922 960.744 4.58496 946.646 4.58496Z" fill="url(#paint5_linear)"/>
<path d="M101.884 27.3534C101.884 12.6709 113.78 0.777832 128.424 0.777832H946.571C961.234 0.777832 973.111 12.6897 973.111 27.3534V29.4832C972.245 15.5735 960.725 4.56627 946.627 4.56627H128.5C113.837 4.56627 101.96 16.4782 101.96 31.1418L101.884 27.3534Z" fill="url(#paint6_linear)"/>
<path d="M969.29 568.082H105.743V586.741H969.29V568.082Z" fill="#212121"/>
<path d="M969.29 27.3531V568.081H105.743V27.3531C105.743 14.8193 115.926 4.62256 128.443 4.62256H946.59C959.107 4.62256 969.29 14.8193 969.29 27.3531Z" fill="black"/>
<path d="M1070.2 588.173V594.506H640.702C636.467 594.506 632.27 595.109 628.148 596.09C627.658 596.203 627.169 596.316 626.679 596.41V588.173H1070.2Z" fill="url(#paint7_linear)"/>
<path d="M626.698 588.173V596.41C624.873 596.749 623.009 596.919 621.146 596.919H453.85C451.986 596.919 450.123 596.749 448.297 596.41V588.173H626.698Z" fill="url(#paint8_linear)"/>
<path d="M973.13 586.76V588.173H969.29H105.743H101.941V586.76H973.13Z" fill="#131313"/>
</g>
<defs>
<filter id="filter0_d" x="0.77829" y="0.777832" width="1073.48" height="620.312" filterUnits="userSpaceOnUse" color-interpolation-filters="sRGB">
<feFlood flood-opacity="0" result="BackgroundImageFix"/>
<feColorMatrix in="SourceAlpha" type="matrix" values="0 0 0 0 0 0 0 0 0 0 0 0 0 0 0 0 0 0 127 0"/>
<feOffset dy="4"/>
<feGaussianBlur stdDeviation="2"/>
<feColorMatrix type="matrix" values="0 0 0 0 0 0 0 0 0 0 0 0 0 0 0 0 0 0 0.25 0"/>
<feBlend mode="normal" in2="BackgroundImageFix" result="effect1_dropShadow"/>
<feBlend mode="normal" in="SourceGraphic" in2="effect1_dropShadow" result="shape"/>
</filter>
<linearGradient id="paint0_linear" x1="537.513" y1="613.091" x2="537.513" y2="595.435" gradientUnits="userSpaceOnUse">
<stop stop-color="#575554"/>
<stop offset="0.464" stop-color="#575554"/>
<stop offset="1" stop-color="#131313"/>
</linearGradient>
<linearGradient id="paint1_linear" x1="448.279" y1="593.214" x2="4.78056" y2="593.214" gradientUnits="userSpaceOnUse">
<stop stop-color="#767676"/>
<stop offset="0.000828953" stop-color="#6E6E6E"/>
<stop offset="0.00387589" stop-color="#585858"/>
<stop offset="0.00675288" stop-color="#4A4A4A"/>
<stop offset="0.00926474" stop-color="#454545"/>
<stop offset="0.0129" stop-color="#484848"/>
<stop offset="0.0159" stop-color="#525252"/>
<stop offset="0.0178" stop-color="#5D5D5D"/>
<stop offset="0.0253" stop-color="#7C7C7C"/>
<stop offset="0.4016" stop-color="#838383"/>
<stop offset="0.4064" stop-color="#838383"/>
<stop offset="0.9354" stop-color="#6A6A6A"/>
<stop offset="0.9589" stop-color="#484848"/>
<stop offset="0.9731" stop-color="#383838"/>
<stop offset="0.9791" stop-color="#3D3D3D"/>
<stop offset="0.9862" stop-color="#4B4B4B"/>
<stop offset="0.9939" stop-color="#636363"/>
<stop offset="1" stop-color="#7C7C7C"/>
</linearGradient>
<linearGradient id="paint2_linear" x1="626.693" y1="593.214" x2="1070.19" y2="593.214" gradientUnits="userSpaceOnUse">
<stop stop-color="#505050"/>
<stop offset="0.000828953" stop-color="#484848"/>
<stop offset="0.00387589" stop-color="#323232"/>
<stop offset="0.00675288" stop-color="#242424"/>
<stop offset="0.00926474" stop-color="#1F1F1F"/>
<stop offset="0.0129" stop-color="#222222"/>
<stop offset="0.0159" stop-color="#2C2C2C"/>
<stop offset="0.0178" stop-color="#373737"/>
<stop offset="0.0253" stop-color="#565656"/>
<stop offset="0.4016" stop-color="#5E5E5E"/>
<stop offset="0.4064" stop-color="#5E5E5E"/>
<stop offset="0.9354" stop-color="#444444"/>
<stop offset="0.9589" stop-color="#222222"/>
<stop offset="0.9731" stop-color="#121212"/>
<stop offset="0.9791" stop-color="#171717"/>
<stop offset="0.9862" stop-color="#252525"/>
<stop offset="0.9939" stop-color="#3D3D3D"/>
<stop offset="1" stop-color="#565656"/>
</linearGradient>
<linearGradient id="paint3_linear" x1="448.279" y1="593.472" x2="626.693" y2="593.472" gradientUnits="userSpaceOnUse">
<stop stop-color="#565656"/>
<stop offset="0.0612" stop-color="#444444"/>
<stop offset="0.5076" stop-color="#565656"/>
<stop offset="0.9402" stop-color="#444444"/>
<stop offset="1" stop-color="#565656"/>
</linearGradient>
<linearGradient id="paint4_linear" x1="448.279" y1="592.294" x2="4.78056" y2="592.294" gradientUnits="userSpaceOnUse">
<stop stop-color="#A7A7A7"/>
<stop offset="0.00138006" stop-color="#8E8E8E"/>
<stop offset="0.00352817" stop-color="#6F6F6F"/>
<stop offset="0.00560494" stop-color="#585858"/>
<stop offset="0.00755907" stop-color="#4A4A4A"/>
<stop offset="0.00926474" stop-color="#454545"/>
<stop offset="0.012" stop-color="#484848"/>
<stop offset="0.0142" stop-color="#525252"/>
<stop offset="0.0163" stop-color="#636363"/>
<stop offset="0.0178" stop-color="#757575"/>
<stop offset="0.0253" stop-color="#6B6968"/>
<stop offset="0.4016" stop-color="#6B6968"/>
<stop offset="0.4064" stop-color="#6B6968"/>
<stop offset="0.9354" stop-color="#8D8D8D"/>
<stop offset="0.9494" stop-color="#636363"/>
<stop offset="0.965" stop-color="#3B3B3B"/>
<stop offset="0.9731" stop-color="#2B2B2B"/>
<stop offset="0.9793" stop-color="#303030"/>
<stop offset="0.9867" stop-color="#3E3E3E"/>
<stop offset="0.9946" stop-color="#565554"/>
<stop offset="1" stop-color="#6B6968"/>
</linearGradient>
<linearGradient id="paint5_linear" x1="537.54" y1="586.753" x2="537.54" y2="4.57705" gradientUnits="userSpaceOnUse">
<stop stop-color="#504E4E"/>
<stop offset="0.0946" stop-color="#585656"/>
<stop offset="0.2407" stop-color="#6E6B6B"/>
<stop offset="0.4192" stop-color="#918E8E"/>
<stop offset="0.447" stop-color="#979494"/>
<stop offset="1" stop-color="#7B7878"/>
</linearGradient>
<linearGradient id="paint6_linear" x1="537.513" y1="31.1605" x2="537.513" y2="0.775758" gradientUnits="userSpaceOnUse">
<stop stop-color="#1A1A1A"/>
<stop offset="0.2805" stop-color="#1D1D1D"/>
<stop offset="0.4483" stop-color="#252525"/>
<stop offset="0.5865" stop-color="#333333"/>
<stop offset="0.7086" stop-color="#474747"/>
<stop offset="0.8201" stop-color="#626262"/>
<stop offset="0.9223" stop-color="#818181"/>
<stop offset="1" stop-color="#9F9F9F"/>
</linearGradient>
<linearGradient id="paint7_linear" x1="626.693" y1="592.294" x2="1070.19" y2="592.294" gradientUnits="userSpaceOnUse">
<stop stop-color="#818181"/>
<stop offset="0.00133465" stop-color="#696969"/>
<stop offset="0.00349543" stop-color="#4A4A4A"/>
<stop offset="0.00558396" stop-color="#333333"/>
<stop offset="0.00754928" stop-color="#252525"/>
<stop offset="0.00926474" stop-color="#202020"/>
<stop offset="0.012" stop-color="#232323"/>
<stop offset="0.0143" stop-color="#2D2D2D"/>
<stop offset="0.0163" stop-color="#3E3E3E"/>
<stop offset="0.0178" stop-color="#4F4F4F"/>
<stop offset="0.0253" stop-color="#6B6968"/>
<stop offset="0.4016" stop-color="#6B6968"/>
<stop offset="0.4064" stop-color="#6B6968"/>
<stop offset="0.9354" stop-color="#686868"/>
<stop offset="0.9464" stop-color="#4B4B4B"/>
<stop offset="0.964" stop-color="#232323"/>
<stop offset="0.9731" stop-color="#131313"/>
<stop offset="0.9783" stop-color="#181818"/>
<stop offset="0.9844" stop-color="#262626"/>
<stop offset="0.991" stop-color="#3E3D3D"/>
<stop offset="0.9979" stop-color="#605E5D"/>
<stop offset="1" stop-color="#6B6968"/>
</linearGradient>
<linearGradient id="paint8_linear" x1="448.279" y1="592.552" x2="626.693" y2="592.552" gradientUnits="userSpaceOnUse">
<stop stop-color="#838180"/>
<stop offset="0.0612" stop-color="#6B6968"/>
<stop offset="0.5076" stop-color="#838180"/>
<stop offset="0.9402" stop-color="#6B6968"/>
<stop offset="1" stop-color="#838180"/>
</linearGradient>
</defs>
</svg>
